name="Common Universalis"
path="mod/Common Universalis"
tags={
	"Balance"
	"Events"
	"Expansion"
	"Gameplay"
	"Historical"
	"Map"
	"Missions And Decisions"
	"National Ideas"
	"New Nations"
	"Religion"
	"Overhaul"
}
picture="CommonUniversalis.jpg"
supported_version="1.20.*.*"
