# Order here is the priority for taking them, if trigger is true.

CAS = {
	NOT = { 
		exists = SPA 
		is_year = 1700
	}
}

SPA = {
	NOT = { 
		exists = CAS
		is_year = 1700
	}
}

TUR = {
	NOT = { 
		is_year = 1700
	}
}

RUS = {
	always = yes
}

MOS = {
	NOT = { 
		exists = RUS
	}
}

GBR = {
	always = yes
}

ENG = {
	NOT = { 
		exists = GBR
	}
}

FRA = {
	always = yes
}

HAB = {
	always = yes
}

PRU = {
	is_year = 1700
}

NED = {
	always = yes
}

POR = {
	NOT = { 
		is_year = 1600
	}
}
BRA = {
	always = yes
}
SWE = {
	NOT = { 
		is_year = 1700
	}
}

POL = {
	NOT = {
		exists = PLC
	}
}



PLC = {
	NOT = { 
		is_year = 1700
	}
}
