#Country Name: See the Name of this File.

graphical_culture = indiangfx

color = { 187  79  86 }

historical_idea_groups = {
	tradition_ideas
	offensive_ideas
	defensive_ideas
	economic_ideas
	quality_ideas
	trade_ideas
	spy_ideas
	diplomatic_ideas
}

historical_units = {
	indian_footsoldier
	rajput_hill_fighters
	indian_arquebusier
	mughal_musketeer
	rajput_musketeer
	mughal_mansabdar
	indian_elephant
	sikh_hit_and_run
	reformed_mughal_mansabdar
	bhonsle_cavalry
	indian_rifle
	tipu_sultan_rocket
}

monarch_names = {
	"Jassa Ahuwalia #0" = 20
	"Lahina #0" = 20
	"Ranjit #0" = 20
	"Bhag #0" = 10
	"Kharak #0" = 10
	"Duleep #0" = 10
	"Fateh #0" = 5
	"Maha #0" = 5
	"Sobha #0" = 5
	"Narnak #0" = 5
	"Angad #0" = 5
	"Amar #0" = 5
	"Ram #0" = 5
	"Arjan #0" = 5
	"Gobind #0" = 5
	"Rai #0" = 5
	"Krishan #0" = 5
	"Bahadur #0" = 5
	"Sardar Badar #1" = 1
	"Balbir #0" = 0
	"Bhalla #0" = 0
	"Daya #0" = 0
	"Dharem #0" = 0
	"Fakir #0" = 0
	"Gahunia #0" = 0
	"Gian #0" = 0
	"Nihang  #0" = 0
	"Granth #0" = 0
	"Bhai Bachittar #0" = 0
	"Himmat #0" = 0
	"Hoora #0" = 0
	"Ishnar #0" = 0
	"Jhol #0" = 0
	"Jhotti #0" = 0
	"Lohaar #0" = 0
	"Mokham #0" = 0
	"Nand #0" = 0
	"Parmanand #0" = 0
	"Rajsingh #0" = 0
	"Sanlib #0" = 0
	"Sardul #0" = 0
	"Shabeg #0" = 0
	"Shergill #0" = 0
	"Sodhi #0" = 0
	"Sohal #0" = 0
	"Tara #0" = 0
	"Udasi #0" = 0
	"Chand Kaur #0" = -10
	"Ratan Kaur #0" = -1
	"Kanwal Kaur #0" = -1
	"Datar Kaur #0" = -1
	"Nand Kaur #0" = -1
	"Mahtab #0" = -1
}

leader_names = {
	Ahluwalia
	Ramgarhia
	Kamboh
	Khatri
	Naru
	Minha
	Bahadur
	Bara
	Khan
	Das
	Dev
	Gahunia
	Parmanand
	Samma
	Shergill
	Singh
	Sodhi
	Sohal
	Soomrah
	Chattar
	Rathore
	Mian
	Rai
	Chauhan
	Bhatia
	Suleria
	Lal
	Khokhar
	Jivan
	Makhdum
	Bhatta
	Pakhral
	Kisthwaria
	Chandral
	Jamwal
	Saran
	Naga
	Pundir
	Katoch
	Gami
	Bhangalia
	Pahore
}

ship_names = {
	Beas Chenab Devi Gayatri Guru Indus
	Jalsena Jhelum Lakshmi Nausena
	"Nav ka Yudh" Parvati Radha Ratri
	Ravi Sagar Sutlej Sarasvati Sita
}
