#667 - Guangzhou

owner = MNG
controller = MNG
add_core = MNG
culture = cantonese
religion = confucianism
capital = "Canton"
trade_goods = spices
hre = no
base_tax = 12 
base_production = 10
base_manpower = 5
is_city = yes
add_core = YUE
fort_15th = yes #More than 1 Weisuo



discovered_by = chinese
discovered_by = indian
discovered_by = muslim
discovered_by = ottoman
discovered_by = nomad_group
extra_cost = 25

add_permanent_province_modifier = {
	name = center_of_trade_modifier
	duration = -1
}
add_permanent_province_modifier = {
	name = pearl_estuary_modifier
	duration = -1
}




1514.1.1 = { discovered_by = POR }

1647.4.1 = {
	owner = QNG
	controller = QNG
	add_core = QNG
}
1648.4.15 = {
	controller = MNG 
	owner = MNG
}
1650.11.11 = {
	owner = QNG
	controller = QNG
}
1659.1.1 = {
	owner = QNG
	controller = QNG
	add_core = QNG
} # The Qing Conquest of China finishes
1662.4.1 = {
	owner = CZH
	controller = CZH
	add_core = CZH
} # Three Feudatories
1681.10.1 = {
	owner = QNG
	controller = QNG
	add_core = QNG
}
